UserName : Ram
[1   Dosa  2  40.0 ,4   Parota   2  55.0 ]
 Total bill=95.0
Thu Dec 02 13:43:46 IST 2021

UserName: Ravi
[5   Poori  3  70.0 ,2  Idly  3  50.0 ,4   Parota   2  55.0 ]
Total bill =175.0
Thu Dec 02 13:45:47 IST 2021